%YAML 1.1
%TAG !u! tag:unity3d.com,2011:
--- !u!1 &883
GameObject:
  m_ObjectHideFlags: 0
  m_CorrespondingSourceObject: {fileID: 0}
  m_PrefabInstance: {fileID: 0}
  m_PrefabAsset: {fileID: 0}
  serializedVersion: 6
  m_Component:
  - component: {fileID: 1851}
  - component: {fileID: 3194}
  - component: {fileID: 3400}
  - component: {fileID: 3402}
  - component: {fileID: 3405}
  - component: {fileID: 3403}
  m_Layer: 13
  m_Name: farm
  m_TagString: Building
  m_Icon: {fileID: 0}
  m_NavMeshLayer: 0
  m_StaticEditorFlags: 0
  m_IsActive: 1
--- !u!4 &1851
Transform:
  m_ObjectHideFlags: 0
  m_CorrespondingSourceObject: {fileID: 0}
  m_PrefabInstance: {fileID: 0}
  m_PrefabAsset: {fileID: 0}
  m_GameObject: {fileID: 883}
  m_LocalRotation: {x: 0, y: 0, z: 0, w: 1}
  m_LocalPosition: {x: -13.247223, y: 0, z: 74.68167}
  m_LocalScale: {x: 1, y: 1, z: 1}
  m_Children:
  - {fileID: 1852}
  - {fileID: 2094}
  - {fileID: 3806111266011503140}
  - {fileID: 7032567174275143131}
  - {fileID: 185952861604208671}
  - {fileID: 8155462322309571848}
  - {fileID: 5422579800202034701}
  m_Father: {fileID: 0}
  m_RootOrder: 0
  m_LocalEulerAnglesHint: {x: 0, y: 0, z: 0}
--- !u!65 &3194
BoxCollider:
  m_ObjectHideFlags: 0
  m_CorrespondingSourceObject: {fileID: 0}
  m_PrefabInstance: {fileID: 0}
  m_PrefabAsset: {fileID: 0}
  m_GameObject: {fileID: 883}
  m_Material: {fileID: 0}
  m_IsTrigger: 0
  m_Enabled: 1
  serializedVersion: 2
  m_Size: {x: 4.2663975, y: 0.32911825, z: 5.142227}
  m_Center: {x: 0.41151524, y: 0.029051542, z: 0.0679245}
--- !u!114 &3400
MonoBehaviour:
  m_ObjectHideFlags: 0
  m_CorrespondingSourceObject: {fileID: 0}
  m_PrefabInstance: {fileID: 0}
  m_PrefabAsset: {fileID: 0}
  m_GameObject: {fileID: 883}
  m_Enabled: 1
  m_EditorHideFlags: 0
  m_Script: {fileID: 11500000, guid: 36d965436cdb2714590c65b6eb22ac44, type: 3}
  m_Name: 
  m_EditorClassIdentifier: 
  team: 1
  tear: 0
  ownerId: 1
  maxHealth: 100
  health: 0
  live: 1
  pointToInteract: {fileID: 0}
  tearDisplay: []
  debug: 0
  isWalkAround: 0
  timeToWalk: 0
  timerToWalk: 0
  visionDistanve: 0
  _skillInfo:
    uniqueName: Farm
    readableName: Farm
    readableDescription: Farm
    imagePath: buildings/plow.png
    timeToBuild: 0
    costFood: 0
    costGold: 0
    costWood: 80
    productionHotkey: 102
    skillType: 1
  _skillConditions: 1
  unitPosition: {x: 0, y: 0, z: 0}
  interactType: 0
  attackTimer: 0
  attackDelayTimer: 0
  attacked: 0
  defaultStatistic:
    damage: 10
    rangeAttack: 2
    attackTime: 2
    attackDelay: 0.5
    damageAfterTimer: 1
    attackType: 4
    stabbingResist: 0
    cuttingResist: 0
    bitingResist: 0
    magicResist: 0
    agrRange: 20
    alertRange: 10
  actionEffect: {fileID: 0}
  behaviorType: 1
  bloodEffect: {fileID: 0}
  bloodOnBroundEffects: []
  destroyEffectPrefab: {fileID: 0}
  destroyEffectHandler: {fileID: 0}
  timeToDestroy: 30
  destroyAfter: 7
  toUndergroundSpeed: 1
  sendToDestroy: 0
  delayToMoveUnderground: 3
  weapon:
    prefab: {fileID: 0}
    holder: {fileID: 0}
  agent: {fileID: 0}
  obstacle: {fileID: 0}
  anim: {fileID: 0}
  target: {fileID: 0}
  tempDestinationPoint: {x: 0, y: 0, z: 0}
  previousPosition: {x: 0, y: 0, z: 0}
  curSpeed: 0
  cameraController: {fileID: 0}
  skillList: []
  producedUnits: []
  spawnPoint: {fileID: 0}
  spawnTarget: {x: 0, y: 0, z: 0}
  spawnTargetObject: {fileID: 0}
  buildTimer: 0
  productionQuery: []
  HTMLHealthFile: {fileID: 4900000, guid: e50f3066b80392041b07e41547bc36cb, type: 3}
  InfoHTMLOffset: {x: 0, y: 1, z: 0}
  pointMarkerPrefab: {fileID: 0}
  HTMLHealthSize: {x: 100, y: 100}
  visionToolPrefab: {fileID: 0}
  visionCount: 0
  uqeryLimit: 5
  beenSeen: 0
  holderObject: {fileID: 0}
  timerToCreateHolder: 0
  holderToolInfo:
    prefab: {fileID: 0}
    holder: {fileID: 0}
  tempSpeed: 0
  attackedTeam: 0
  pointMarker: {fileID: 0}
  canBeSelected: 1
  visionTool: {fileID: 0}
  unitSelectionComponent: {fileID: 0}
  resourceCapacityType: 1
  resourceCapacity: 0
  resourceEndless: 1
  sourceType: 1
  storedResources: 
  isInCameraView: 0
  state: 3
  magnitDistance: 2
  tempMaterialsMode: 
  terrainChangeInfo:
    offset: {x: -1.8, y: -1}
    size: {x: 8, y: 7}
    layer: 7
    value: 1
    changeTexture: 1
    removeGrass: 1
--- !u!114 &3402
MonoBehaviour:
  m_ObjectHideFlags: 0
  m_CorrespondingSourceObject: {fileID: 0}
  m_PrefabInstance: {fileID: 0}
  m_PrefabAsset: {fileID: 0}
  m_GameObject: {fileID: 883}
  m_Enabled: 1
  m_EditorHideFlags: 0
  m_Script: {fileID: 11500000, guid: 0e11b0a92f7104e4f8c2693c0cf315ba, type: 3}
  m_Name: 
  m_EditorClassIdentifier: 
  canBeSelected: 1
  isSelected: 0
  projector: {fileID: 885}
--- !u!114 &3405
MonoBehaviour:
  m_ObjectHideFlags: 0
  m_CorrespondingSourceObject: {fileID: 0}
  m_PrefabInstance: {fileID: 0}
  m_PrefabAsset: {fileID: 0}
  m_GameObject: {fileID: 883}
  m_Enabled: 1
  m_EditorHideFlags: 0
  m_Script: {fileID: 11500000, guid: aa584fbee541324448dd18d8409c7a41, type: 3}
  m_Name: 
  m_EditorClassIdentifier: 
  ObservedComponentsFoldoutOpen: 1
  Group: 0
  prefixField: -1
  Synchronization: 3
  OwnershipTransfer: 0
  ObservedComponents:
  - {fileID: 3403}
  viewIdField: 0
  InstantiationId: 9
  isRuntimeInstantiated: 0
--- !u!114 &3403
MonoBehaviour:
  m_ObjectHideFlags: 0
  m_CorrespondingSourceObject: {fileID: 0}
  m_PrefabInstance: {fileID: 0}
  m_PrefabAsset: {fileID: 0}
  m_GameObject: {fileID: 883}
  m_Enabled: 1
  m_EditorHideFlags: 0
  m_Script: {fileID: 11500000, guid: 627855c7f81362d41938ffe0b1475957, type: 3}
  m_Name: 
  m_EditorClassIdentifier: 
  m_SynchronizePosition: 1
  m_SynchronizeRotation: 1
  m_SynchronizeScale: 0
--- !u!1 &885
GameObject:
  m_ObjectHideFlags: 0
  m_CorrespondingSourceObject: {fileID: 0}
  m_PrefabInstance: {fileID: 0}
  m_PrefabAsset: {fileID: 0}
  serializedVersion: 6
  m_Component:
  - component: {fileID: 1852}
  - component: {fileID: 3271}
  m_Layer: 13
  m_Name: Projector
  m_TagString: Untagged
  m_Icon: {fileID: 0}
  m_NavMeshLayer: 0
  m_StaticEditorFlags: 0
  m_IsActive: 0
--- !u!4 &1852
Transform:
  m_ObjectHideFlags: 0
  m_CorrespondingSourceObject: {fileID: 0}
  m_PrefabInstance: {fileID: 0}
  m_PrefabAsset: {fileID: 0}
  m_GameObject: {fileID: 885}
  m_LocalRotation: {x: -0, y: -0.7071068, z: 0.7071068, w: 0}
  m_LocalPosition: {x: 0.27, y: -0.18, z: 0}
  m_LocalScale: {x: 74.85823, y: 74.85817, z: 74.85811}
  m_Children: []
  m_Father: {fileID: 1851}
  m_RootOrder: 0
  m_LocalEulerAnglesHint: {x: 180, y: 0, z: 90}
--- !u!119 &3271
Projector:
  m_ObjectHideFlags: 0
  m_CorrespondingSourceObject: {fileID: 0}
  m_PrefabInstance: {fileID: 0}
  m_PrefabAsset: {fileID: 0}
  m_GameObject: {fileID: 885}
  m_Enabled: 1
  serializedVersion: 2
  m_NearClipPlane: -0.64
  m_FarClipPlane: 5.98
  m_FieldOfView: 59.85
  m_AspectRatio: 0.91
  m_Orthographic: 1
  m_OrthographicSize: 2.79
  m_Material: {fileID: 2100000, guid: 9706cbcb88d8ce74fbc7d1211cc40544, type: 2}
  m_IgnoreLayers:
    serializedVersion: 2
    m_Bits: 32311
--- !u!1001 &628272497354018469
PrefabInstance:
  m_ObjectHideFlags: 0
  serializedVersion: 2
  m_Modification:
    m_TransformParent: {fileID: 1851}
    m_Modifications:
    - target: {fileID: 8761215706973285293, guid: 13f7ddfd40d49374fadc59817cdddaf2,
        type: 3}
      propertyPath: m_LocalPosition.x
      value: -0.756
      objectReference: {fileID: 0}
    - target: {fileID: 8761215706973285293, guid: 13f7ddfd40d49374fadc59817cdddaf2,
        type: 3}
      propertyPath: m_LocalPosition.y
      value: -0.058
      objectReference: {fileID: 0}
    - target: {fileID: 8761215706973285293, guid: 13f7ddfd40d49374fadc59817cdddaf2,
        type: 3}
      propertyPath: m_LocalPosition.z
      value: 0
      objectReference: {fileID: 0}
    - target: {fileID: 8761215706973285293, guid: 13f7ddfd40d49374fadc59817cdddaf2,
        type: 3}
      propertyPath: m_LocalRotation.x
      value: -0
      objectReference: {fileID: 0}
    - target: {fileID: 8761215706973285293, guid: 13f7ddfd40d49374fadc59817cdddaf2,
        type: 3}
      propertyPath: m_LocalRotation.y
      value: -0
      objectReference: {fileID: 0}
    - target: {fileID: 8761215706973285293, guid: 13f7ddfd40d49374fadc59817cdddaf2,
        type: 3}
      propertyPath: m_LocalRotation.z
      value: -0
      objectReference: {fileID: 0}
    - target: {fileID: 8761215706973285293, guid: 13f7ddfd40d49374fadc59817cdddaf2,
        type: 3}
      propertyPath: m_LocalRotation.w
      value: 1
      objectReference: {fileID: 0}
    - target: {fileID: 8761215706973285293, guid: 13f7ddfd40d49374fadc59817cdddaf2,
        type: 3}
      propertyPath: m_RootOrder
      value: 5
      objectReference: {fileID: 0}
    - target: {fileID: 8761215706973285293, guid: 13f7ddfd40d49374fadc59817cdddaf2,
        type: 3}
      propertyPath: m_LocalEulerAnglesHint.x
      value: 0
      objectReference: {fileID: 0}
    - target: {fileID: 8761215706973285293, guid: 13f7ddfd40d49374fadc59817cdddaf2,
        type: 3}
      propertyPath: m_LocalEulerAnglesHint.y
      value: 0
      objectReference: {fileID: 0}
    - target: {fileID: 8761215706973285293, guid: 13f7ddfd40d49374fadc59817cdddaf2,
        type: 3}
      propertyPath: m_LocalEulerAnglesHint.z
      value: 0
      objectReference: {fileID: 0}
    - target: {fileID: 8761215706973284093, guid: 13f7ddfd40d49374fadc59817cdddaf2,
        type: 3}
      propertyPath: m_Name
      value: farm row (4)
      objectReference: {fileID: 0}
    m_RemovedComponents: []
  m_SourcePrefab: {fileID: 100100000, guid: 13f7ddfd40d49374fadc59817cdddaf2, type: 3}
--- !u!4 &8155462322309571848 stripped
Transform:
  m_CorrespondingSourceObject: {fileID: 8761215706973285293, guid: 13f7ddfd40d49374fadc59817cdddaf2,
    type: 3}
  m_PrefabInstance: {fileID: 628272497354018469}
  m_PrefabAsset: {fileID: 0}
--- !u!1001 &1733505225916497526
PrefabInstance:
  m_ObjectHideFlags: 0
  serializedVersion: 2
  m_Modification:
    m_TransformParent: {fileID: 1851}
    m_Modifications:
    - target: {fileID: 8761215706973285293, guid: 13f7ddfd40d49374fadc59817cdddaf2,
        type: 3}
      propertyPath: m_LocalPosition.x
      value: 0.733
      objectReference: {fileID: 0}
    - target: {fileID: 8761215706973285293, guid: 13f7ddfd40d49374fadc59817cdddaf2,
        type: 3}
      propertyPath: m_LocalPosition.y
      value: -0.058
      objectReference: {fileID: 0}
    - target: {fileID: 8761215706973285293, guid: 13f7ddfd40d49374fadc59817cdddaf2,
        type: 3}
      propertyPath: m_LocalPosition.z
      value: 0
      objectReference: {fileID: 0}
    - target: {fileID: 8761215706973285293, guid: 13f7ddfd40d49374fadc59817cdddaf2,
        type: 3}
      propertyPath: m_LocalRotation.x
      value: -0
      objectReference: {fileID: 0}
    - target: {fileID: 8761215706973285293, guid: 13f7ddfd40d49374fadc59817cdddaf2,
        type: 3}
      propertyPath: m_LocalRotation.y
      value: -0
      objectReference: {fileID: 0}
    - target: {fileID: 8761215706973285293, guid: 13f7ddfd40d49374fadc59817cdddaf2,
        type: 3}
      propertyPath: m_LocalRotation.z
      value: -0
      objectReference: {fileID: 0}
    - target: {fileID: 8761215706973285293, guid: 13f7ddfd40d49374fadc59817cdddaf2,
        type: 3}
      propertyPath: m_LocalRotation.w
      value: 1
      objectReference: {fileID: 0}
    - target: {fileID: 8761215706973285293, guid: 13f7ddfd40d49374fadc59817cdddaf2,
        type: 3}
      propertyPath: m_RootOrder
      value: 3
      objectReference: {fileID: 0}
    - target: {fileID: 8761215706973285293, guid: 13f7ddfd40d49374fadc59817cdddaf2,
        type: 3}
      propertyPath: m_LocalEulerAnglesHint.x
      value: 0
      objectReference: {fileID: 0}
    - target: {fileID: 8761215706973285293, guid: 13f7ddfd40d49374fadc59817cdddaf2,
        type: 3}
      propertyPath: m_LocalEulerAnglesHint.y
      value: 0
      objectReference: {fileID: 0}
    - target: {fileID: 8761215706973285293, guid: 13f7ddfd40d49374fadc59817cdddaf2,
        type: 3}
      propertyPath: m_LocalEulerAnglesHint.z
      value: 0
      objectReference: {fileID: 0}
    - target: {fileID: 8761215706973284093, guid: 13f7ddfd40d49374fadc59817cdddaf2,
        type: 3}
      propertyPath: m_Name
      value: farm row (2)
      objectReference: {fileID: 0}
    m_RemovedComponents: []
  m_SourcePrefab: {fileID: 100100000, guid: 13f7ddfd40d49374fadc59817cdddaf2, type: 3}
--- !u!4 &7032567174275143131 stripped
Transform:
  m_CorrespondingSourceObject: {fileID: 8761215706973285293, guid: 13f7ddfd40d49374fadc59817cdddaf2,
    type: 3}
  m_PrefabInstance: {fileID: 1733505225916497526}
  m_PrefabAsset: {fileID: 0}
--- !u!1001 &3663336198894982560
PrefabInstance:
  m_ObjectHideFlags: 0
  serializedVersion: 2
  m_Modification:
    m_TransformParent: {fileID: 1851}
    m_Modifications:
    - target: {fileID: 8761215706973285293, guid: 13f7ddfd40d49374fadc59817cdddaf2,
        type: 3}
      propertyPath: m_LocalPosition.x
      value: -1.478
      objectReference: {fileID: 0}
    - target: {fileID: 8761215706973285293, guid: 13f7ddfd40d49374fadc59817cdddaf2,
        type: 3}
      propertyPath: m_LocalPosition.y
      value: -0.058
      objectReference: {fileID: 0}
    - target: {fileID: 8761215706973285293, guid: 13f7ddfd40d49374fadc59817cdddaf2,
        type: 3}
      propertyPath: m_LocalPosition.z
      value: 0
      objectReference: {fileID: 0}
    - target: {fileID: 8761215706973285293, guid: 13f7ddfd40d49374fadc59817cdddaf2,
        type: 3}
      propertyPath: m_LocalRotation.x
      value: -0
      objectReference: {fileID: 0}
    - target: {fileID: 8761215706973285293, guid: 13f7ddfd40d49374fadc59817cdddaf2,
        type: 3}
      propertyPath: m_LocalRotation.y
      value: -0
      objectReference: {fileID: 0}
    - target: {fileID: 8761215706973285293, guid: 13f7ddfd40d49374fadc59817cdddaf2,
        type: 3}
      propertyPath: m_LocalRotation.z
      value: -0
      objectReference: {fileID: 0}
    - target: {fileID: 8761215706973285293, guid: 13f7ddfd40d49374fadc59817cdddaf2,
        type: 3}
      propertyPath: m_LocalRotation.w
      value: 1
      objectReference: {fileID: 0}
    - target: {fileID: 8761215706973285293, guid: 13f7ddfd40d49374fadc59817cdddaf2,
        type: 3}
      propertyPath: m_RootOrder
      value: 6
      objectReference: {fileID: 0}
    - target: {fileID: 8761215706973285293, guid: 13f7ddfd40d49374fadc59817cdddaf2,
        type: 3}
      propertyPath: m_LocalEulerAnglesHint.x
      value: 0
      objectReference: {fileID: 0}
    - target: {fileID: 8761215706973285293, guid: 13f7ddfd40d49374fadc59817cdddaf2,
        type: 3}
      propertyPath: m_LocalEulerAnglesHint.y
      value: 0
      objectReference: {fileID: 0}
    - target: {fileID: 8761215706973285293, guid: 13f7ddfd40d49374fadc59817cdddaf2,
        type: 3}
      propertyPath: m_LocalEulerAnglesHint.z
      value: 0
      objectReference: {fileID: 0}
    - target: {fileID: 8761215706973284093, guid: 13f7ddfd40d49374fadc59817cdddaf2,
        type: 3}
      propertyPath: m_Name
      value: farm row (5)
      objectReference: {fileID: 0}
    m_RemovedComponents: []
  m_SourcePrefab: {fileID: 100100000, guid: 13f7ddfd40d49374fadc59817cdddaf2, type: 3}
--- !u!4 &5422579800202034701 stripped
Transform:
  m_CorrespondingSourceObject: {fileID: 8761215706973285293, guid: 13f7ddfd40d49374fadc59817cdddaf2,
    type: 3}
  m_PrefabInstance: {fileID: 3663336198894982560}
  m_PrefabAsset: {fileID: 0}
--- !u!1001 &5567594022497513865
PrefabInstance:
  m_ObjectHideFlags: 0
  serializedVersion: 2
  m_Modification:
    m_TransformParent: {fileID: 1851}
    m_Modifications:
    - target: {fileID: 8761215706973285293, guid: 13f7ddfd40d49374fadc59817cdddaf2,
        type: 3}
      propertyPath: m_LocalPosition.x
      value: 1.417
      objectReference: {fileID: 0}
    - target: {fileID: 8761215706973285293, guid: 13f7ddfd40d49374fadc59817cdddaf2,
        type: 3}
      propertyPath: m_LocalPosition.y
      value: -0.058
      objectReference: {fileID: 0}
    - target: {fileID: 8761215706973285293, guid: 13f7ddfd40d49374fadc59817cdddaf2,
        type: 3}
      propertyPath: m_LocalPosition.z
      value: 0
      objectReference: {fileID: 0}
    - target: {fileID: 8761215706973285293, guid: 13f7ddfd40d49374fadc59817cdddaf2,
        type: 3}
      propertyPath: m_LocalRotation.x
      value: -0
      objectReference: {fileID: 0}
    - target: {fileID: 8761215706973285293, guid: 13f7ddfd40d49374fadc59817cdddaf2,
        type: 3}
      propertyPath: m_LocalRotation.y
      value: -0
      objectReference: {fileID: 0}
    - target: {fileID: 8761215706973285293, guid: 13f7ddfd40d49374fadc59817cdddaf2,
        type: 3}
      propertyPath: m_LocalRotation.z
      value: -0
      objectReference: {fileID: 0}
    - target: {fileID: 8761215706973285293, guid: 13f7ddfd40d49374fadc59817cdddaf2,
        type: 3}
      propertyPath: m_LocalRotation.w
      value: 1
      objectReference: {fileID: 0}
    - target: {fileID: 8761215706973285293, guid: 13f7ddfd40d49374fadc59817cdddaf2,
        type: 3}
      propertyPath: m_RootOrder
      value: 2
      objectReference: {fileID: 0}
    - target: {fileID: 8761215706973285293, guid: 13f7ddfd40d49374fadc59817cdddaf2,
        type: 3}
      propertyPath: m_LocalEulerAnglesHint.x
      value: 0
      objectReference: {fileID: 0}
    - target: {fileID: 8761215706973285293, guid: 13f7ddfd40d49374fadc59817cdddaf2,
        type: 3}
      propertyPath: m_LocalEulerAnglesHint.y
      value: 0
      objectReference: {fileID: 0}
    - target: {fileID: 8761215706973285293, guid: 13f7ddfd40d49374fadc59817cdddaf2,
        type: 3}
      propertyPath: m_LocalEulerAnglesHint.z
      value: 0
      objectReference: {fileID: 0}
    - target: {fileID: 8761215706973284093, guid: 13f7ddfd40d49374fadc59817cdddaf2,
        type: 3}
      propertyPath: m_Name
      value: farm row (1)
      objectReference: {fileID: 0}
    m_RemovedComponents: []
  m_SourcePrefab: {fileID: 100100000, guid: 13f7ddfd40d49374fadc59817cdddaf2, type: 3}
--- !u!4 &3806111266011503140 stripped
Transform:
  m_CorrespondingSourceObject: {fileID: 8761215706973285293, guid: 13f7ddfd40d49374fadc59817cdddaf2,
    type: 3}
  m_PrefabInstance: {fileID: 5567594022497513865}
  m_PrefabAsset: {fileID: 0}
--- !u!1001 &8761215706973283203
PrefabInstance:
  m_ObjectHideFlags: 0
  serializedVersion: 2
  m_Modification:
    m_TransformParent: {fileID: 1851}
    m_Modifications:
    - target: {fileID: 8761215706973285293, guid: 13f7ddfd40d49374fadc59817cdddaf2,
        type: 3}
      propertyPath: m_LocalPosition.x
      value: 2.11
      objectReference: {fileID: 0}
    - target: {fileID: 8761215706973285293, guid: 13f7ddfd40d49374fadc59817cdddaf2,
        type: 3}
      propertyPath: m_LocalPosition.y
      value: -0.058
      objectReference: {fileID: 0}
    - target: {fileID: 8761215706973285293, guid: 13f7ddfd40d49374fadc59817cdddaf2,
        type: 3}
      propertyPath: m_LocalPosition.z
      value: 0
      objectReference: {fileID: 0}
    - target: {fileID: 8761215706973285293, guid: 13f7ddfd40d49374fadc59817cdddaf2,
        type: 3}
      propertyPath: m_LocalRotation.x
      value: -0
      objectReference: {fileID: 0}
    - target: {fileID: 8761215706973285293, guid: 13f7ddfd40d49374fadc59817cdddaf2,
        type: 3}
      propertyPath: m_LocalRotation.y
      value: -0
      objectReference: {fileID: 0}
    - target: {fileID: 8761215706973285293, guid: 13f7ddfd40d49374fadc59817cdddaf2,
        type: 3}
      propertyPath: m_LocalRotation.z
      value: -0
      objectReference: {fileID: 0}
    - target: {fileID: 8761215706973285293, guid: 13f7ddfd40d49374fadc59817cdddaf2,
        type: 3}
      propertyPath: m_LocalRotation.w
      value: 1
      objectReference: {fileID: 0}
    - target: {fileID: 8761215706973285293, guid: 13f7ddfd40d49374fadc59817cdddaf2,
        type: 3}
      propertyPath: m_RootOrder
      value: 1
      objectReference: {fileID: 0}
    - target: {fileID: 8761215706973285293, guid: 13f7ddfd40d49374fadc59817cdddaf2,
        type: 3}
      propertyPath: m_LocalEulerAnglesHint.x
      value: 0
      objectReference: {fileID: 0}
    - target: {fileID: 8761215706973285293, guid: 13f7ddfd40d49374fadc59817cdddaf2,
        type: 3}
      propertyPath: m_LocalEulerAnglesHint.y
      value: 0
      objectReference: {fileID: 0}
    - target: {fileID: 8761215706973285293, guid: 13f7ddfd40d49374fadc59817cdddaf2,
        type: 3}
      propertyPath: m_LocalEulerAnglesHint.z
      value: 0
      objectReference: {fileID: 0}
    - target: {fileID: 8761215706973284093, guid: 13f7ddfd40d49374fadc59817cdddaf2,
        type: 3}
      propertyPath: m_Name
      value: farm row
      objectReference: {fileID: 0}
    m_RemovedComponents: []
  m_SourcePrefab: {fileID: 100100000, guid: 13f7ddfd40d49374fadc59817cdddaf2, type: 3}
--- !u!4 &2094 stripped
Transform:
  m_CorrespondingSourceObject: {fileID: 8761215706973285293, guid: 13f7ddfd40d49374fadc59817cdddaf2,
    type: 3}
  m_PrefabInstance: {fileID: 8761215706973283203}
  m_PrefabAsset: {fileID: 0}
--- !u!1001 &8863845342275554226
PrefabInstance:
  m_ObjectHideFlags: 0
  serializedVersion: 2
  m_Modification:
    m_TransformParent: {fileID: 1851}
    m_Modifications:
    - target: {fileID: 8761215706973285293, guid: 13f7ddfd40d49374fadc59817cdddaf2,
        type: 3}
      propertyPath: m_LocalPosition.x
      value: 0
      objectReference: {fileID: 0}
    - target: {fileID: 8761215706973285293, guid: 13f7ddfd40d49374fadc59817cdddaf2,
        type: 3}
      propertyPath: m_LocalPosition.y
      value: -0.058
      objectReference: {fileID: 0}
    - target: {fileID: 8761215706973285293, guid: 13f7ddfd40d49374fadc59817cdddaf2,
        type: 3}
      propertyPath: m_LocalPosition.z
      value: 0
      objectReference: {fileID: 0}
    - target: {fileID: 8761215706973285293, guid: 13f7ddfd40d49374fadc59817cdddaf2,
        type: 3}
      propertyPath: m_LocalRotation.x
      value: -0
      objectReference: {fileID: 0}
    - target: {fileID: 8761215706973285293, guid: 13f7ddfd40d49374fadc59817cdddaf2,
        type: 3}
      propertyPath: m_LocalRotation.y
      value: -0
      objectReference: {fileID: 0}
    - target: {fileID: 8761215706973285293, guid: 13f7ddfd40d49374fadc59817cdddaf2,
        type: 3}
      propertyPath: m_LocalRotation.z
      value: -0
      objectReference: {fileID: 0}
    - target: {fileID: 8761215706973285293, guid: 13f7ddfd40d49374fadc59817cdddaf2,
        type: 3}
      propertyPath: m_LocalRotation.w
      value: 1
      objectReference: {fileID: 0}
    - target: {fileID: 8761215706973285293, guid: 13f7ddfd40d49374fadc59817cdddaf2,
        type: 3}
      propertyPath: m_RootOrder
      value: 4
      objectReference: {fileID: 0}
    - target: {fileID: 8761215706973285293, guid: 13f7ddfd40d49374fadc59817cdddaf2,
        type: 3}
      propertyPath: m_LocalEulerAnglesHint.x
      value: 0
      objectReference: {fileID: 0}
    - target: {fileID: 8761215706973285293, guid: 13f7ddfd40d49374fadc59817cdddaf2,
        type: 3}
      propertyPath: m_LocalEulerAnglesHint.y
      value: 0
      objectReference: {fileID: 0}
    - target: {fileID: 8761215706973285293, guid: 13f7ddfd40d49374fadc59817cdddaf2,
        type: 3}
      propertyPath: m_LocalEulerAnglesHint.z
      value: 0
      objectReference: {fileID: 0}
    - target: {fileID: 8761215706973284093, guid: 13f7ddfd40d49374fadc59817cdddaf2,
        type: 3}
      propertyPath: m_Name
      value: farm row (3)
      objectReference: {fileID: 0}
    m_RemovedComponents: []
  m_SourcePrefab: {fileID: 100100000, guid: 13f7ddfd40d49374fadc59817cdddaf2, type: 3}
--- !u!4 &185952861604208671 stripped
Transform:
  m_CorrespondingSourceObject: {fileID: 8761215706973285293, guid: 13f7ddfd40d49374fadc59817cdddaf2,
    type: 3}
  m_PrefabInstance: {fileID: 8863845342275554226}
  m_PrefabAsset: {fileID: 0}
